{
    "version": "https://jsonfeed.org/version/1",
    "title": "D.I.C.E.",
    "description": "",
    "home_page_url": "https://robertlowe2.gitlab.io/publii-dicelabbers",
    "feed_url": "https://robertlowe2.gitlab.io/publii-dicelabbers/feed.json",
    "user_comment": "",
    "icon": "https://robertlowe2.gitlab.io/publii-dicelabbers/media/website/cube7.png",
    "author": {
        "name": "Robert Lowe"
    },
    "items": [
        {
            "id": "https://robertlowe2.gitlab.io/publii-dicelabbers/alberto-montebelli.html",
            "url": "https://robertlowe2.gitlab.io/publii-dicelabbers/alberto-montebelli.html",
            "title": "Alberto Montebelli",
            "content_html": "<div>\n<div><figure class=\"post__image post__image--left\"><img loading=\"lazy\"  src=\"https://robertlowe2.gitlab.io/publii-dicelabbers/media/posts/32/Montebelli.jpg\" sizes=\"(max-width: 1024px) 100vw, 1024px\" srcset=\"https://robertlowe2.gitlab.io/publii-dicelabbers/media/posts/32/responsive/Montebelli-xs.jpg 300w ,https://robertlowe2.gitlab.io/publii-dicelabbers/media/posts/32/responsive/Montebelli-sm.jpg 480w ,https://robertlowe2.gitlab.io/publii-dicelabbers/media/posts/32/responsive/Montebelli-md.jpg 768w ,https://robertlowe2.gitlab.io/publii-dicelabbers/media/posts/32/responsive/Montebelli-lg.jpg 1024w\"  alt=\"\" width=\"200\" height=\"282\"></figure>Across my academic career, I have explored my interest in interdisciplinary research concerning biological and artificial “minds”. The results of my research are published in diverse yet related fields, including neuroscience, cognitive robotics, physical human-robot interaction, and technical higher-education. My current research interests mainly focus on physical human-robot interaction, cognitive robotics (with particular reference to the emergence of intrinsically motivated behavior), and technical higher education. I am currently serving as Senior Lecturer in Cognitive Science (University of Gothenburg) and Senior Lecturer in Informatics (University of Skövde).</div>\n<div>For detailed information on my work and publications, visit my website:</div>\n<div><a href=\"https://albertomontebelli.wordpress.com/\" target=\"_blank\" data-saferedirecturl=\"https://www.google.com/url?q=https://albertomontebelli.wordpress.com/&amp;source=gmail&amp;ust=1602940983827000&amp;usg=AFQjCNHbMLB-j7rrpd9LlNqAxkR8Nz3sZA\" rel=\"noopener\">https://albertomontebelli.<wbr>wordpress.com/</a></div>\n</div>",
            "author": {
                "name": "Robert Lowe"
            },
            "tags": [
            ],
            "date_published": "2020-10-29T10:02:18+01:00",
            "date_modified": "2020-10-29T10:02:18+01:00"
        },
        {
            "id": "https://robertlowe2.gitlab.io/publii-dicelabbers/one-more.html",
            "url": "https://robertlowe2.gitlab.io/publii-dicelabbers/one-more.html",
            "title": "Noldus FaceReader Blog",
            "content_html": "<p>Some of our activity at DICE Lab has been published in a recent blog by the companay Noldus. It concerns work where we have used their emotion expression software (FaceReader). </p>\n<p>Read the blog here: </p>\n<p><a href=\"https://www.noldus.com/blog/role-facial-expression-emotion-joint-activities\" target=\"_blank\" rel=\"noopener noreferrer\">https://www.noldus.com/blog/role-facial-expression-emotion-joint-activities</a></p>",
            "author": {
                "name": "Robert Lowe"
            },
            "tags": [
                   "news"
            ],
            "date_published": "2020-10-29T10:02:18+01:00",
            "date_modified": "2020-10-29T10:02:18+01:00"
        },
        {
            "id": "https://robertlowe2.gitlab.io/publii-dicelabbers/george-mudrak.html",
            "url": "https://robertlowe2.gitlab.io/publii-dicelabbers/george-mudrak.html",
            "title": "George Mudrak",
            "content_html": "<figure class=\"post__image post__image--left\"><img loading=\"lazy\"  src=\"https://robertlowe2.gitlab.io/publii-dicelabbers/media/posts/31/george_mudrak_thumbnail.jpg\" sizes=\"(max-width: 1024px) 100vw, 1024px\" srcset=\"https://robertlowe2.gitlab.io/publii-dicelabbers/media/posts/31/responsive/george_mudrak_thumbnail-xs.jpg 300w ,https://robertlowe2.gitlab.io/publii-dicelabbers/media/posts/31/responsive/george_mudrak_thumbnail-sm.jpg 480w ,https://robertlowe2.gitlab.io/publii-dicelabbers/media/posts/31/responsive/george_mudrak_thumbnail-md.jpg 768w ,https://robertlowe2.gitlab.io/publii-dicelabbers/media/posts/31/responsive/george_mudrak_thumbnail-lg.jpg 1024w\"  alt=\"\" width=\"152\" height=\"270\"></figure>I am a Senior Architect and Manager at the consulting firm Sigma AB located in Sweden.  I have been in the IT industry for almost 30 years, and still going strong.  I am a firm believer in self-improvement and the enjoyment of learning new things led me to my current goal of completing my PhD in Complex Systems within Computer Science - soonish.  I enjoy constructive discussions of all types especially with future ideas and what-ifs.  I have a special interest in artificial life and complex systems and am an avid Sci-Fi &amp; Fantasy reader and currently writing my own fantasy series with future writing projects in mind. </p>",
            "author": {
                "name": "Robert Lowe"
            },
            "tags": [
            ],
            "date_published": "2020-10-29T10:02:18+01:00",
            "date_modified": "2020-10-29T10:02:18+01:00"
        },
        {
            "id": "https://robertlowe2.gitlab.io/publii-dicelabbers/even-more-news.html",
            "url": "https://robertlowe2.gitlab.io/publii-dicelabbers/even-more-news.html",
            "title": "AI Sweden: Project Opportunities",
            "content_html": "<p>Robert Lowe will present (EdTech &amp; AI) at the AI Sweden workshop (September 30th). You can register below (deadline September 29th):</p>\n<p><a href=\"https://sv-se.invajo.com/event/aisweden/projectopportunitieswithaisweden\">https://sv-se.invajo.com/event/aisweden/projectopportunitieswithaisweden</a></p>\n<p> </p>",
            "author": {
                "name": "Robert Lowe"
            },
            "tags": [
                   "news"
            ],
            "date_published": "2020-10-29T10:02:18+01:00",
            "date_modified": "2020-10-29T10:02:18+01:00"
        },
        {
            "id": "https://robertlowe2.gitlab.io/publii-dicelabbers/even-newer-post.html",
            "url": "https://robertlowe2.gitlab.io/publii-dicelabbers/even-newer-post.html",
            "title": "Ethics of AI Discussion Group",
            "content_html": "<p>A new discussion group headed by Anna Dollbo starts September 28th 1900-2030. For more information: <a href=\"https://www.facebook.com/groups/dontkillmewalle\" target=\"_blank\" data-saferedirecturl=\"https://www.google.com/url?q=https://www.facebook.com/groups/dontkillmewalle&amp;source=gmail&amp;ust=1601032146684000&amp;usg=AFQjCNGd52zi19b92ZHvZWA61m67h2VvGg\" rel=\"noopener\">https://www.facebook.com/<wbr>groups/dontkillmewalle</a></p>",
            "author": {
                "name": "Robert Lowe"
            },
            "tags": [
                   "news"
            ],
            "date_published": "2020-10-29T10:02:18+01:00",
            "date_modified": "2020-10-29T10:02:18+01:00"
        },
        {
            "id": "https://robertlowe2.gitlab.io/publii-dicelabbers/emotion-detection-for-the-epi-robot.html",
            "url": "https://robertlowe2.gitlab.io/publii-dicelabbers/emotion-detection-for-the-epi-robot.html",
            "title": "Emotion Detection for the Epi Robot",
            "content_html": "<p><strong>Title</strong>: Towards an Emotion Expression Detection Approach for the Epi Robot on a Decision Making Task</p>\n<p class=\"p1\"><strong>Authors: </strong>Olle Anthin &amp; Max Sundin Pekkala</p>\n<p><strong>Abstract:</strong></p>\n<p class=\"p1\">The Deep Learning revolution of the 21th century has had a major impact on Human-Robot interaction research. However this progress has been partially limited to domain-specific areas resulting in poor advancements of socially intelligent behaviour in AI. A key aspect of intelligent interactive behaviour is the ability to learn efficiently from social and non-social cues in the environment. It has been shown through transfer of control (TOC) experiments that humans are capable of learning associations through the experiences of other humans. To move towards implementing a humanoid robot in a similar context it was deemed as a logical first step to develop a system that can read affective states as well as non-social objects in real-time. A state of the art object detection system, Yolov3, was chosen for the task. Performance was compared to an, earlier, slightly faster but less accurate model. The two systems were trained on a custom dataset consisting of positive, negative and neutral facial expressions of an actress performing a TOC-experiment and non-social objects from a dataset called “Snodgrass &amp; Vanderwart ‘Like’ Objects“. To provide further evidence of the models suitability for emotion recognition a qualitative comparison was performed against a well known emotion detection system from Noldus called FaceReader. The chosen model performed better on all accounts except speed (slight difference) when compared to the earlier model. It achieved high accuracy on positive and negative emotion but relatively poor performance on neutral. In comparison to FaceReader, Yolov3 was deemed more suitable for the purposes of the project.</p>",
            "author": {
                "name": "Robert Lowe"
            },
            "tags": [
            ],
            "date_published": "2020-10-29T10:02:18+01:00",
            "date_modified": "2020-10-29T10:02:18+01:00"
        },
        {
            "id": "https://robertlowe2.gitlab.io/publii-dicelabbers/artificial-intelligence-at-dice-lab.html",
            "url": "https://robertlowe2.gitlab.io/publii-dicelabbers/artificial-intelligence-at-dice-lab.html",
            "title": "Artificial Intelligence at DICE Lab",
            "content_html": "<p>On the Cognitive Science Bachelor's program we teach:</p>\n<p>AI1 (coordinator: Faramarz Agahi) : An Introduction to Artificial Intelligence - focused on Philosophical and core algorithmic aspects of Artificial Intelligence.</p>\n<p>AI2 (coordinator: Robert Lowe) : Neural Networks &amp; Deep Learning - focused on foundational basics of neural networks and their analysis as well as deep learning algorithms fundamental to, above all, image classification. </p>\n<p>AI3 (coordinator: Robert Lowe) : Deep Reinforcement Learning &amp; Games - focused on foundational basics of reinforcement learning and the application of deep learning algorithms (function approximators) for enabling agential human level performance on video and board games. </p>\n<p> </p>",
            "author": {
                "name": "Robert Lowe"
            },
            "tags": [
            ],
            "date_published": "2020-10-29T10:02:18+01:00",
            "date_modified": "2020-10-29T10:02:18+01:00"
        },
        {
            "id": "https://robertlowe2.gitlab.io/publii-dicelabbers/the-role-of-eyegaze-in-visuospatial-memory.html",
            "url": "https://robertlowe2.gitlab.io/publii-dicelabbers/the-role-of-eyegaze-in-visuospatial-memory.html",
            "title": "The Role of Eyegaze in Visuospatial Memory",
            "content_html": "<p><strong>Title: </strong>The Role of Eye Gaze in Visuospatial Memory Recall: An eye-tracking study</p>\n<p class=\"p1\"><strong>Authors</strong>: David da Silva Jonasson &amp; Marcus Tofftin</p>\n<p><strong>Abstract:</strong></p>\n<p class=\"p1\">Research on the connection between eye movements and visuospatial memory has shown that eye movements have a functional role besides visual perception. Because of its predictable patterns during memory recollection, this phenomenon has been called “look-to-nothing”, and it has been hypothesized that the eye gaze is used as an aid to memory. Although several studies have shown and argued for its effect, the evidence for which factors contribute to the mechanism has been inconclusive. In the present study, we investigate if different types of recollection methods induce more or less congruent eye movements, and if these eye movements can predict memory performance. A design of cued recall (simple questions) compared to semi-free recall (describing questions) was used, as participants were recalling information when looking at a blank screen. Complex naturalistic images were used as stimuli.</p>\n<p>In these conditions, correlational effects between memory performance and eye gaze congruence were also explored, in addition to participants’ self-reported vividness rating of the different conditions. Our results provide novel evidence in this field of research, suggesting that eye movements show more congruence in a cued recall condition compared to free recall. The study found no correlation between memory performance and congruent eye movements.</p>",
            "author": {
                "name": "Robert Lowe"
            },
            "tags": [
            ],
            "date_published": "2020-10-29T10:02:18+01:00",
            "date_modified": "2020-10-29T10:02:18+01:00"
        },
        {
            "id": "https://robertlowe2.gitlab.io/publii-dicelabbers/evaluating-driver-affective-engagement.html",
            "url": "https://robertlowe2.gitlab.io/publii-dicelabbers/evaluating-driver-affective-engagement.html",
            "title": "Evaluating Driver Affective Engagement ",
            "content_html": "<p><strong>Title</strong>: <span style=\"font-weight: 400;\">Volvo Cars, </span><span style=\"font-weight: 400;\">Driving Distraction Blockages: </span><span style=\"font-weight: 400;\">A user study on the effects of display blockages on emotion</span></p>\n<p><strong>Authors</strong>: Jessica Bley &amp; Siri Wessberg</p>\n<p><strong>Abstract</strong>:</p>\n<p><span style=\"font-weight: 400;\">Driver distraction is a leading cause of traffic accidents and therefore it is important to block distractions within the car, such as interactions with the center display. In the following user study, nine licensed drivers performed 12 tasks on the center display in a Volvo car. This was done in order to examine the users’ attitudes and emotional responses caused by being blocked from activities deemed unsafe for driving. The study compared the responses from two different types of visually displayed blockages implemented in the system, </span><i><span style=\"font-weight: 400;\">Toast</span></i><span style=\"font-weight: 400;\"> and </span><i><span style=\"font-weight: 400;\">Overlay</span></i><span style=\"font-weight: 400;\">. The first is a message that appears on top of the screen and automatically closes the interaction, the latter is displayed covering the screen with a message that is manually closed. The study was conducted on an enclosed driving track at Volvo Cars Demo Center. Data was collected in the form of Think aloud transcripts, semantic differential scale responses and video recordings. The video was analysed by the software program FaceReader which uses Facial Action Units to obtain an objective measurement of emotional states. The results showed an overall positive attitude towards being blocked from unsafe activities. Furthermore the type of blockage being displayed was of small significance. Problems occured from poor video quality and resulted in non-reliable results from FaceReader. However, the data collected from Think aloud as well as the semantic differential scale was deemed to be sufficient. The subject is largely unexplored and future investigations are encouraged, for example to test how distracting the blockage itself is.</span></p>",
            "author": {
                "name": "Robert Lowe"
            },
            "tags": [
            ],
            "date_published": "2020-10-29T10:02:18+01:00",
            "date_modified": "2020-10-29T10:02:18+01:00"
        },
        {
            "id": "https://robertlowe2.gitlab.io/publii-dicelabbers/classifying-confusion-as-an-emotion.html",
            "url": "https://robertlowe2.gitlab.io/publii-dicelabbers/classifying-confusion-as-an-emotion.html",
            "title": "Classifying Confusion as an Emotion",
            "content_html": "<p><strong>Title</strong>: Classifying Confusion: Autodetection of Confusion in Communicative Misunderstandings</p>\n<p><strong>Authors:</strong> Niklas Borges &amp; Ludvig Lindblom </p>\n<p><a _ngcontent-c39=\"\" placement=\"bottom\" triggers=\"hover\" href=\"https://ieeexplore.ieee.org/author/37087121538\"></a><strong>Abstract*:</strong></p>\n<div>Classification of secondary emotions via facial expression analysis or other forms of social signal processing is a topic which has received more attention recently due to the increasing computational and algorithmic power of emotion expression and detection software. Of the social emotions (or affective states), confusion detection is of paramount importance in interactive tasks that require communicating from different viewpoints. Confusion has only fairly recently been the subject of computational modelling approaches owing to the contention as to what expressive components are foundational. One aspect of confusion that has been perhaps de-emphasized in such models is the temporal component. This includes facial expression and non-expression data and the temporal context (state) within which they are embedded. Using the Facial Action Coding schema of Ekman, this article reports the findings of a Long-Short Term Memory (LSTM neural network) modelling approach to (video) instances of confusion as expressed in the context of a “instructor-follower” interactive (map directions) task. The LSTM neural network is able to encode the temporal context of expressed micro instances of positive, negative, neutral and confusion based affective states and is compared against a simpler algorithm used in FaceReader 7.1. that does not account for temporal context (memory state). The LSTM neural network, when trained on time series data of a number of theoretically relevant Action Units, performed at a level comparable to the chosen benchmark highlighting its potential utility. Lesioning trials of the pre-trained best model showed that Action Units 25, 26 and 27, involving open mouth expressions, were the most individually important contributing factors to the model's performance. Testing on novel and larger datasets, as well as possible incorporation of multimodal social signals, would be expected to enhance generalizability and provide potential avenues for future work.</div>\n<div> </div>\n<div><strong>*</strong>Adapted for publication in: Borges, N., Lindblom, L., Clarke, B., Gander, A., &amp; Lowe, R. (2019, September). Classifying Confusion: Autodetection of Communicative Misunderstandings using Facial Action Units. In <em>2019 8th International Conference on Affective Computing and Intelligent Interaction Workshops and Demos (ACIIW)</em> (pp. 401-406). IEEE. <a _ngcontent-c27=\"\" append-to-href=\"?src=document\" target=\"_blank\" href=\"https://doi.org/10.1109/ACIIW.2019.8925037\" rel=\"noopener\">https://doi.org/10.1109/ACIIW.2019.8925037</a></div>",
            "author": {
                "name": "Robert Lowe"
            },
            "tags": [
            ],
            "date_published": "2020-10-29T10:02:18+01:00",
            "date_modified": "2020-10-29T10:02:18+01:00"
        }
    ]
}
